{
  "project_info": {
    "project_number": "790089955011",
    "firebase_url": "https://farmos-4781e.firebaseio.com",
    "project_id": "farmos-4781e",
    "storage_bucket": "farmos-4781e.appspot.com"
  },
  "client": [
    {
      "client_info": {
        "mobilesdk_app_id": "1:790089955011:android:10cda0fb7173c49c",
        "android_client_info": {
          "package_name": "com.itto.farmos"
        }
      },
      "oauth_client": [
        {
          "client_id": "790089955011-5lop4c7dd2f7mds2oktr7nj64o5ul6fb.apps.googleusercontent.com",
          "client_type": 3
        }
      ],
      "api_key": [
        {
          "current_key": "AIzaSyATxXharQuNs6zaw03UJtV-v99VqhxQJQI"
        }
      ],
      "services": {
        "analytics_service": {
          "status": 1
        },
        "appinvite_service": {
          "status": 1,
          "other_platform_oauth_client": []
        },
        "ads_service": {
          "status": 2
        }
      }
    }
  ],
  "configuration_version": "1"
}